…
De methodes die we gebruiken voor sentimentanalyse zijn gebaseerd op een
woordenboek dat specifieke waardes toekent aan elk woord. Hieronder zie
je een voorbeeld voor de methode AFINN. ‘abandon’ krijgt een waarde van
-2, ‘abhorrent’ een waarde van -3. Als alleen het woord ‘abhorrent’ in
een headline staat, zal die headline dus een score van -3 krijgen. Als
een woord niet gevonden kan worden in het woordenboek, wordt het woord
genegeerd en heeft het geen impact op de score.

``` r
get_sentiments("afinn")
```

    ## # A tibble: 2,477 × 2
    ##    word       value
    ##    <chr>      <dbl>
    ##  1 abandon       -2
    ##  2 abandoned     -2
    ##  3 abandons      -2
    ##  4 abducted      -2
    ##  5 abduction     -2
    ##  6 abductions    -2
    ##  7 abhor         -3
    ##  8 abhorred      -3
    ##  9 abhorrent     -3
    ## 10 abhors        -3
    ## # … with 2,467 more rows
…
